<svg xmlns="http://www.w3.org/2000/svg" width="21.985" height="21.969" viewBox="0 0 21.985 21.969">
  <path id="Path_654" data-name="Path 654" d="M13.245,14.846,23.551,4.526a1.465,1.465,0,0,0,0-2.074,1.5,1.5,0,0,0-2.074,0L11.157,12.758,10.12,11.721a1.128,1.128,0,0,0-1.553,0l-1,1.015L2.152,16.6a.364.364,0,0,0-.048.557l1.3,1.3a.366.366,0,0,0,.462.051l1.586-1.055L4.39,19.03a.366.366,0,0,0,.048.465L7.545,22.6l1.3,1.3a.366.366,0,0,0,.256.106h.033a.366.366,0,0,0,.267-.154l3.869-5.415,1.015-1.026a1.1,1.1,0,0,0,0-1.553ZM22,2.972a.731.731,0,0,1,1.033,1.033L12.725,14.311l-1.033-1.033ZM9.054,23.075l-.733-.733,1.3-1.293a.368.368,0,0,0-.52-.52L7.8,21.826l-.52-.517,2.334-2.334a.367.367,0,1,0-.52-.517l-2.337,2.33-.517-.517L7.8,18.715a.366.366,0,0,0-.517-.517L5.724,19.752l-.564-.564L7.065,16.33a.366.366,0,0,0-.506-.509L3.7,17.726l-.769-.777,4.836-3.455,4.744,4.744Z" transform="translate(-1.997 -2.037)" fill="#0097F6"/>
</svg>
