<svg id="bedroom-wardrobe" xmlns="http://www.w3.org/2000/svg" width="15.89" height="17.836" viewBox="0 0 15.89 17.836">
  <path id="Path_661" data-name="Path 661" d="M291.739,66.938h-4.864V79.909h4.864Zm-3.924,6.5a.405.405,0,1,1,.405-.405A.423.423,0,0,1,287.815,73.44Z" transform="translate(-278.119 -64.668)" fill="#0097f6"/>
  <path id="Path_662" data-name="Path 662" d="M62.4,45.551V28.688H47.812V45.551h.973v-.973h5.837v.973h.973v-.973h5.837v.973Zm-7.783-2.27H49.109V29.661h5.513v13.62Zm6.486,0H55.595V29.661h5.513v13.62Z" transform="translate(-47.163 -27.715)" fill="#0097f6"/>
  <path id="Path_663" data-name="Path 663" d="M43.929.649,44.578,0H28.688l.649.649Z" transform="translate(-28.688 0)" fill="#0097f6"/>
</svg>
