<svg xmlns="http://www.w3.org/2000/svg" width="16.687" height="14.51" viewBox="0 0 16.687 14.51">
  <g id="Group_946" data-name="Group 946" transform="translate(0 0)">
    <path id="Path_657" data-name="Path 657" d="M13.206,38.908c-.043.461-2.175.464-4.8.464s-4.761,0-4.8-.464H.333A1.179,1.179,0,0,1,0,38.856V39.6a.764.764,0,0,0,.764.764H15.923a.764.764,0,0,0,.764-.764v-.7c-.029,0-.056.008-.088.008Z" transform="translate(0 -25.849)" fill="#fff"/>
    <path id="Path_658" data-name="Path 658" d="M15.923,9H.764A.764.764,0,0,0,0,9.764v1.385a2.609,2.609,0,0,0,.333.028H16.6c.032,0,.058,0,.088-.006V9.764A.764.764,0,0,0,15.923,9ZM1.661,10.583a.517.517,0,1,1,.517-.517A.517.517,0,0,1,1.661,10.583Zm4.585,0a.517.517,0,1,1,.517-.517A.517.517,0,0,1,6.246,10.583Zm3.057,0a.517.517,0,1,1,.517-.517A.517.517,0,0,1,9.3,10.583Zm3.056,0a.517.517,0,1,1,.517-.517A.517.517,0,0,1,12.359,10.583Zm3.057,0a.517.517,0,1,1,.517-.517A.517.517,0,0,1,15.416,10.583Z" transform="translate(0 -6.823)" fill="#fff"/>
    <path id="Path_659" data-name="Path 659" d="M.333,15.955A2.659,2.659,0,0,1,0,15.93v7.933a.828.828,0,0,0,.333.074H4.351A34.842,34.842,0,0,1,8.4,23.808a34.839,34.839,0,0,1,4.051.128H16.6a.63.63,0,0,0,.088-.01V15.95c-.03,0-.055.006-.088.006Zm14.54,6.129a.764.764,0,0,1-.764.764H2.578a.764.764,0,0,1-.764-.764V17.807a.764.764,0,0,1,.764-.764H14.109a.764.764,0,0,1,.764.764Z" transform="translate(0 -11.239)" fill="#fff"/>
    <path id="Path_660" data-name="Path 660" d="M16.075,3H.793A.783.783,0,0,0,0,3.756V4.52c0,.422.371.293.793.293H16.075c.422,0,.612.129.612-.293V3.756C16.687,3.334,16.5,3,16.075,3Z" transform="translate(0 -3)" fill="#fff"/>
  </g>
</svg>
