<svg id="Group_872" data-name="Group 872" xmlns="http://www.w3.org/2000/svg" width="17.993" height="18.457" viewBox="0 0 17.993 18.457">
  <g id="wiping-iron" transform="translate(0 0)">
    <g id="Group_871" data-name="Group 871" transform="translate(0)">
      <path id="Path_643" data-name="Path 643" d="M42.267,7.11,41.829.167A.167.167,0,0,0,41.661,0,23.916,23.916,0,0,0,31.618,1.943h-1.6c-.458,0-.83.109-.83.568v.838a11.816,11.816,0,0,0-4.544,6.063.166.166,0,0,0,.159.216H39.027a.167.167,0,0,0,.166-.158c.115-1.893,2.308-2.157,2.918-2.194A.166.166,0,0,0,42.267,7.11ZM27.888,8.439a.629.629,0,1,1,.629-.629A.629.629,0,0,1,27.888,8.439ZM39.494,5.9a4.111,4.111,0,0,0-2.481,1.186.184.184,0,0,1-.13.053h-.751V6.746c0-.458-.371-.568-.83-.568H33.381c-.458,0-.83.109-.83.568v.393h-2a.185.185,0,0,1-.16-.279c2.546-4.248,7.878-4.176,8.929-4.121a.185.185,0,0,1,.175.185l.169,2.792A.185.185,0,0,1,39.494,5.9Z" transform="translate(-24.275 0)" fill="#fff"/>
      <path id="Path_644" data-name="Path 644" d="M43.374,432.449a.362.362,0,0,0-.362-.362H29.454a.362.362,0,0,0,0,.724H43.013A.362.362,0,0,0,43.374,432.449Z" transform="translate(-28.623 -421.662)" fill="#fff"/>
      <ellipse id="Ellipse_8" data-name="Ellipse 8" cx="0.604" cy="0.604" rx="0.604" ry="0.604" transform="translate(9.705 12.06)" fill="#fff"/>
      <ellipse id="Ellipse_9" data-name="Ellipse 9" cx="0.604" cy="0.604" rx="0.604" ry="0.604" transform="translate(7.006 14.861)" fill="#fff"/>
      <ellipse id="Ellipse_10" data-name="Ellipse 10" cx="0.604" cy="0.604" rx="0.604" ry="0.604" transform="translate(4.308 12.06)" fill="#fff"/>
      <ellipse id="Ellipse_11" data-name="Ellipse 11" cx="0.604" cy="0.604" rx="0.604" ry="0.604" transform="translate(11.989 13.973)" fill="#fff"/>
      <ellipse id="Ellipse_12" data-name="Ellipse 12" cx="0.604" cy="0.604" rx="0.604" ry="0.604" transform="translate(2.024 13.973)" fill="#fff"/>
      <path id="Path_645" data-name="Path 645" d="M9.637,551.838a3.737,3.737,0,0,0,1.387,2.712,3.44,3.44,0,0,0,3.018.227,4.4,4.4,0,0,0,.642.78,3.643,3.643,0,0,0,5.127,0,4.4,4.4,0,0,0,.642-.78,3.439,3.439,0,0,0,3.018-.227,3.737,3.737,0,0,0,1.387-2.712.362.362,0,0,0-.723-.034,3.031,3.031,0,0,1-1.069,2.146,2.941,2.941,0,0,1-2.659.051.363.363,0,0,0-.444.182,3.477,3.477,0,0,1-.671.869,2.918,2.918,0,0,1-4.088,0,3.479,3.479,0,0,1-.671-.868.362.362,0,0,0-.445-.184,2.945,2.945,0,0,1-2.655-.048A3.051,3.051,0,0,1,10.36,551.8a.362.362,0,0,0-.723.034Z" transform="translate(-9.637 -538.154)" fill="#fff"/>
    </g>
  </g>
</svg>
